# 3ds Max Wavefront OBJ Exporter v0.97b - (c)2007 guruware
# File Created: 11.10.2019 19:29:58

mtllib MinimalPolyTree.mtl

#
# object Cylinder001
#

v  9.3169 0.0000 -7.5743
v  8.7242 0.0000 -9.4698
v  8.7242 10.3699 -9.4698
v  9.3169 10.3699 -7.5743
v  7.0173 0.0000 -11.1367
v  7.0173 10.3699 -11.1367
v  4.4022 0.0000 -12.3738
v  4.4022 10.3699 -12.3738
v  1.1943 0.0000 -13.0321
v  1.1943 10.3699 -13.0321
v  -2.2194 0.0000 -13.0321
v  -2.2194 10.3699 -13.0321
v  -5.4273 0.0000 -12.3738
v  -5.4273 10.3699 -12.3738
v  -8.0424 0.0000 -11.1367
v  -8.0424 10.3699 -11.1367
v  -9.7492 0.0000 -9.4698
v  -9.7492 10.3699 -9.4698
v  -10.3420 0.0000 -7.5743
v  -10.3420 10.3699 -7.5743
v  -9.7492 0.0000 -5.6788
v  -9.7492 10.3699 -5.6788
v  -8.0424 0.0000 -4.0119
v  -8.0424 10.3699 -4.0119
v  -5.4273 0.0000 -2.7747
v  -5.4273 10.3699 -2.7747
v  -2.2194 0.0000 -2.1164
v  -2.2194 10.3699 -2.1164
v  1.1943 0.0000 -2.1164
v  1.1943 10.3699 -2.1164
v  4.4022 0.0000 -2.7747
v  4.4022 10.3699 -2.7747
v  7.0173 0.0000 -4.0119
v  7.0173 10.3699 -4.0119
v  8.7242 0.0000 -5.6788
v  8.7242 10.3699 -5.6788
v  8.7242 20.7399 -9.4698
v  9.3169 20.7399 -7.5743
v  7.0173 20.7399 -11.1367
v  4.4022 20.7399 -12.3738
v  1.1943 20.7399 -13.0321
v  -2.2194 20.7399 -13.0321
v  -5.4273 20.7399 -12.3738
v  -8.0424 20.7399 -11.1367
v  -9.7492 20.7399 -9.4698
v  -10.3420 20.7399 -7.5743
v  -9.7492 20.7399 -5.6788
v  -8.0424 20.7399 -4.0119
v  -5.4273 20.7399 -2.7747
v  -2.2194 20.7399 -2.1164
v  1.1943 20.7399 -2.1164
v  4.4022 20.7399 -2.7747
v  7.0173 20.7399 -4.0119
v  8.7242 20.7399 -5.6788
v  8.7242 31.1098 -9.4698
v  9.3169 31.1098 -7.5743
v  7.0173 31.1098 -11.1367
v  4.4022 31.1098 -12.3738
v  -2.2194 31.1098 -13.0321
v  1.1943 31.1098 -13.0321
v  -5.4273 31.1098 -12.3738
v  -8.0424 31.1098 -11.1367
v  -9.7492 31.1098 -9.4698
v  -10.3420 31.1098 -7.5743
v  -9.7492 31.1098 -5.6788
v  -8.0424 31.1098 -4.0119
v  -5.4273 31.1098 -2.7747
v  -2.2194 31.1098 -2.1164
v  1.1943 31.1098 -2.1164
v  4.4022 31.1098 -2.7747
v  7.0173 31.1098 -4.0119
v  8.7242 31.1098 -5.6788
v  42.3750 49.5548 -10.8608
v  41.7822 49.5548 -12.7563
v  41.7822 59.9247 -12.7563
v  42.3750 59.9247 -10.8608
v  7.0173 41.4798 -11.1367
v  8.7242 41.4798 -9.4698
v  4.4022 41.4798 -12.3738
v  1.1943 41.4798 -13.0321
v  -2.2194 41.4798 -13.0321
v  -5.4273 41.4798 -12.3738
v  -9.7492 41.4798 -9.4698
v  -8.0424 41.4798 -11.1367
v  -10.3420 41.4798 -7.5743
v  -49.3876 61.0388 -3.6925
v  -48.7949 61.0388 -1.7970
v  -48.7949 71.4087 -1.7970
v  -49.3876 71.4087 -3.6925
v  -8.0424 41.4798 -4.0119
v  -9.7492 41.4798 -5.6788
v  -5.4273 41.4798 -2.7747
v  -2.2194 41.4798 -2.1164
v  1.1943 41.4798 -2.1164
v  4.4022 41.4798 -2.7747
v  8.7242 41.4798 -5.6788
v  7.0173 41.4798 -4.0119
v  9.3169 41.4798 -7.5743
v  3.3626 56.6885 -8.3695
v  3.6113 56.6885 -7.5743
v  2.6465 56.6885 -9.0688
v  1.5494 56.6885 -9.5879
v  0.2036 56.6885 -9.8641
v  -1.2286 56.6885 -9.8641
v  -2.5745 56.6885 -9.5879
v  -3.6716 56.6885 -9.0688
v  -4.3877 56.6885 -8.3695
v  -4.6364 56.6885 -7.5743
v  -4.3877 56.6885 -6.7790
v  -3.6716 56.6885 -6.0797
v  -2.5745 56.6885 -5.5607
v  -1.2286 56.6885 -5.2845
v  0.2036 56.6885 -5.2845
v  1.5494 56.6885 -5.5607
v  2.6465 56.6885 -6.0797
v  3.3626 56.6885 -6.7790
v  -39.1697 34.0184 -3.6996
v  -48.9311 41.5007 -2.7291
v  -49.5239 41.5007 -4.6246
v  -39.7625 34.0184 -5.5951
v  -19.5106 48.9620 -4.7083
v  -29.2720 56.4443 -3.7379
v  -39.0335 63.9265 -2.7675
v  -39.0335 53.5566 -2.7675
v  -29.2720 46.0743 -3.7379
v  -19.5106 38.5921 -4.7083
v  -20.1034 48.9620 -6.6038
v  -29.8648 56.4443 -5.6334
v  -20.1034 38.5921 -6.6038
v  -29.8648 46.0743 -5.6334
v  -39.6262 53.5566 -4.6629
v  -39.6262 63.9265 -4.6629
v  33.3010 31.3422 -10.9603
v  41.5655 35.9534 -11.7820
v  42.1583 35.9534 -9.8865
v  33.8938 31.3422 -9.0648
v  16.9887 46.0910 -10.2914
v  25.2532 50.7023 -11.1130
v  33.5177 55.3135 -11.9347
v  33.5177 44.9435 -11.9347
v  25.2532 40.3323 -11.1130
v  16.9887 35.7211 -10.2914
v  17.5815 46.0910 -8.3959
v  25.8460 50.7023 -9.2175
v  17.5815 35.7211 -8.3959
v  25.8460 40.3323 -9.2175
v  34.1105 44.9435 -10.0392
v  34.1105 55.3135 -10.0392
v  30.5200 63.1365 -8.5486
v  38.7845 67.7477 -9.3702
v  38.1918 67.7477 -11.2657
v  29.9272 63.1365 -10.4441
v  -35.5051 70.0936 -6.6422
v  -45.2665 77.5758 -5.6717
v  -44.6737 77.5758 -3.7762
v  -34.9123 70.0936 -4.7467
v  -0.5125 56.6885 -7.5743
v  -0.5125 0.0000 -7.5743
# 158 vertices

vn 0.7423 -0.6701 0.0000
vn 0.6975 -0.6701 -0.2539
vn 0.9397 0.0000 -0.3420
vn 1.0000 0.0000 0.0000
vn 0.5687 -0.6700 -0.4772
vn 0.7660 0.0000 -0.6428
vn 0.3712 -0.6700 -0.6429
vn 0.5000 0.0000 -0.8660
vn 0.1289 -0.6700 -0.7311
vn 0.1736 0.0000 -0.9848
vn -0.1289 -0.6700 -0.7311
vn -0.1736 0.0000 -0.9848
vn -0.3712 -0.6700 -0.6429
vn -0.5000 0.0000 -0.8660
vn -0.5687 -0.6700 -0.4772
vn -0.7660 0.0000 -0.6428
vn -0.6975 -0.6701 -0.2539
vn -0.9397 0.0000 -0.3420
vn -0.7423 -0.6701 0.0000
vn -1.0000 0.0000 0.0000
vn -0.6976 -0.6700 0.2539
vn -0.9397 0.0000 0.3420
vn -0.5687 -0.6700 0.4772
vn -0.7660 0.0000 0.6428
vn -0.3712 -0.6700 0.6429
vn -0.5000 0.0000 0.8660
vn -0.1289 -0.6700 0.7311
vn -0.1736 0.0000 0.9848
vn 0.1289 -0.6700 0.7311
vn 0.1736 0.0000 0.9848
vn 0.3711 -0.6701 0.6429
vn 0.5000 0.0000 0.8660
vn 0.5686 -0.6701 0.4771
vn 0.7660 0.0000 0.6428
vn 0.6975 -0.6701 0.2539
vn 0.9397 0.0000 0.3420
vn 0.8235 -0.2349 -0.5164
vn 0.9505 -0.2349 0.2036
vn -0.9625 -0.2105 -0.1710
vn -0.8460 -0.2104 0.4899
vn 0.7783 -0.4040 0.4806
vn 0.5670 -0.4040 -0.7178
vn 0.3205 0.7157 -0.6205
vn 0.5134 0.7157 0.4735
vn 0.7542 0.1751 -0.6329
vn 0.5489 0.4623 -0.6964
vn 0.4923 0.1751 -0.8526
vn 0.1710 0.1751 -0.9696
vn -0.1710 0.1751 -0.9696
vn -0.4923 0.1751 -0.8526
vn -0.9252 0.1751 -0.3367
vn -0.7542 0.1751 -0.6329
vn -0.7359 0.4466 -0.5089
vn -0.7997 -0.3501 -0.4877
vn -0.5847 -0.3501 0.7318
vn -0.2708 0.7471 0.6070
vn -0.4621 0.7471 -0.4778
vn -0.7542 0.1751 0.6329
vn -0.5174 0.4466 0.7299
vn -0.4923 0.1751 0.8526
vn -0.1710 0.1751 0.9696
vn 0.1710 0.1751 0.9696
vn 0.4923 0.1751 0.8526
vn 0.9252 0.1751 0.3367
vn 0.7542 0.1751 0.6329
vn 0.7539 0.4623 0.4667
vn 0.5726 0.7929 -0.2084
vn 0.6093 0.7929 -0.0000
vn 0.4668 0.7929 -0.3917
vn 0.3046 0.7929 -0.5277
vn 0.1058 0.7929 -0.6000
vn -0.1058 0.7929 -0.6000
vn -0.3046 0.7929 -0.5277
vn -0.4668 0.7929 -0.3917
vn -0.5726 0.7929 -0.2084
vn -0.6093 0.7929 -0.0000
vn -0.5726 0.7929 0.2084
vn -0.4668 0.7929 0.3917
vn -0.3047 0.7929 0.5277
vn -0.1058 0.7929 0.6000
vn 0.1058 0.7929 0.6000
vn 0.3046 0.7929 0.5277
vn 0.4668 0.7929 0.3917
vn 0.5726 0.7929 0.2084
vn -0.0815 -0.7910 0.6063
vn -0.7279 0.1702 0.6642
vn -0.8889 0.1771 -0.4224
vn -0.2491 -0.7379 -0.6273
vn 0.5423 0.5644 0.6224
vn 0.6201 0.3990 0.6754
vn 0.1968 0.2507 0.9478
vn -0.2968 -0.5644 0.7703
vn -0.0843 0.0010 0.9964
vn 0.0085 -0.5639 0.8258
vn 0.2968 0.5644 -0.7703
vn 0.3755 0.3625 -0.8530
vn -0.2452 -0.5674 -0.7861
vn -0.3777 0.0987 -0.9207
vn -0.5423 -0.5644 -0.6224
vn -0.3790 -0.0102 -0.9253
vn 0.0169 -0.8076 -0.5895
vn 0.7451 0.0955 -0.6601
vn 0.9008 0.1052 0.4212
vn 0.1794 -0.7283 0.6614
vn -0.4581 0.6197 -0.6372
vn -0.5786 0.4100 -0.7051
vn -0.1109 0.2412 -0.9641
vn 0.2126 -0.6197 -0.7555
vn 0.0580 -0.0440 -0.9973
vn -0.0529 -0.5932 -0.8033
vn -0.2126 0.6197 0.7555
vn -0.3288 0.3729 0.8677
vn 0.1940 -0.5945 0.7804
vn 0.3506 0.0942 0.9318
vn 0.4581 -0.6197 0.6372
vn 0.3664 0.0607 0.9285
vn -0.4283 0.4222 0.7990
vn 0.6272 0.6126 0.4810
vn 0.4549 0.6631 -0.5945
vn -0.7023 0.5650 -0.4331
vn 0.4063 0.3392 -0.8485
vn -0.5895 0.6406 -0.4921
vn -0.4226 0.6996 0.5762
vn 0.7401 0.5469 0.3913
vn -0.0000 1.0000 -0.0000
vn 0.0000 -1.0000 -0.0000
# 126 vertex normals

vt 0.7500 0.0000 1.0000
vt 0.8056 0.0000 1.0000
vt 0.8056 0.2000 1.0000
vt 0.7500 0.2000 1.0000
vt 0.8611 0.0000 1.0000
vt 0.8611 0.2000 1.0000
vt 0.9167 0.0000 1.0000
vt 0.9167 0.2000 1.0000
vt 0.9722 0.0000 1.0000
vt 0.9722 0.2000 1.0000
vt -0.0278 0.0000 1.0000
vt 0.0278 0.0000 1.0000
vt 0.0278 0.2000 1.0000
vt -0.0278 0.2000 1.0000
vt 0.0833 0.0000 1.0000
vt 0.0833 0.2000 1.0000
vt 0.1389 0.0000 1.0000
vt 0.1389 0.2000 1.0000
vt 0.1944 0.0000 1.0000
vt 0.1944 0.2000 1.0000
vt 0.2500 0.0000 1.0000
vt 0.2500 0.2000 1.0000
vt 0.3056 0.0000 1.0000
vt 0.3056 0.2000 1.0000
vt 0.3611 0.0000 1.0000
vt 0.3611 0.2000 1.0000
vt 0.4167 0.0000 1.0000
vt 0.4167 0.2000 1.0000
vt 0.4722 0.0000 1.0000
vt 0.4722 0.2000 1.0000
vt 0.5278 0.0000 1.0000
vt 0.5278 0.2000 1.0000
vt 0.5833 0.0000 1.0000
vt 0.5833 0.2000 1.0000
vt 0.6389 0.0000 1.0000
vt 0.6389 0.2000 1.0000
vt 0.6944 0.0000 1.0000
vt 0.6944 0.2000 1.0000
vt 0.8056 0.4000 1.0000
vt 0.7500 0.4000 1.0000
vt 0.8611 0.4000 1.0000
vt 0.9167 0.4000 1.0000
vt 0.9722 0.4000 1.0000
vt 0.0278 0.4000 1.0000
vt -0.0278 0.4000 1.0000
vt 0.0833 0.4000 1.0000
vt 0.1389 0.4000 1.0000
vt 0.1944 0.4000 1.0000
vt 0.2500 0.4000 1.0000
vt 0.3056 0.4000 1.0000
vt 0.3611 0.4000 1.0000
vt 0.4167 0.4000 1.0000
vt 0.4722 0.4000 1.0000
vt 0.5278 0.4000 1.0000
vt 0.5833 0.4000 1.0000
vt 0.6389 0.4000 1.0000
vt 0.6944 0.4000 1.0000
vt 0.8056 0.6000 1.0000
vt 0.7500 0.6000 1.0000
vt 0.8611 0.6000 1.0000
vt 0.9167 0.6000 1.0000
vt 0.0278 0.6000 1.0000
vt -0.0278 0.6000 1.0000
vt 0.0833 0.6000 1.0000
vt 0.1389 0.6000 1.0000
vt 0.1944 0.6000 1.0000
vt 0.2500 0.6000 1.0000
vt 0.3056 0.6000 1.0000
vt 0.3611 0.6000 1.0000
vt 0.4167 0.6000 1.0000
vt 0.4722 0.6000 1.0000
vt 0.5278 0.6000 1.0000
vt 0.5833 0.6000 1.0000
vt 0.6389 0.6000 1.0000
vt 0.6944 0.6000 1.0000
vt 0.8056 0.8000 1.0000
vt 0.7500 0.8000 1.0000
vt 0.8611 0.8000 1.0000
vt 0.9167 0.8000 1.0000
vt 0.9722 0.6000 1.0000
vt 0.9722 0.8000 1.0000
vt 0.0278 0.8000 1.0000
vt -0.0278 0.8000 1.0000
vt 0.0833 0.8000 1.0000
vt 0.1944 0.8000 1.0000
vt 0.1389 0.8000 1.0000
vt 0.2500 0.8000 1.0000
vt 0.3056 0.8000 1.0000
vt 0.3611 0.8000 1.0000
vt 0.4167 0.8000 1.0000
vt 0.4722 0.8000 1.0000
vt 0.5278 0.8000 1.0000
vt 0.5833 0.8000 1.0000
vt 0.6944 0.8000 1.0000
vt 0.6389 0.8000 1.0000
vt 0.8056 1.0000 1.0000
vt 0.7500 1.0000 1.0000
vt 0.8611 1.0000 1.0000
vt 0.9167 1.0000 1.0000
vt 0.9722 1.0000 1.0000
vt 0.0278 1.0000 1.0000
vt -0.0278 1.0000 1.0000
vt 0.0833 1.0000 1.0000
vt 0.1389 1.0000 1.0000
vt 0.1944 1.0000 1.0000
vt 0.2500 1.0000 1.0000
vt 0.3056 1.0000 1.0000
vt 0.3611 1.0000 1.0000
vt 0.4167 1.0000 1.0000
vt 0.4722 1.0000 1.0000
vt 0.5278 1.0000 1.0000
vt 0.5833 1.0000 1.0000
vt 0.6389 1.0000 1.0000
vt 0.6944 1.0000 1.0000
vt 0.5438 1.0000 0.1178
vt 0.9708 1.0000 0.8794
vt 0.9126 1.0000 0.6527
vt 0.8047 1.0000 0.3473
vt 0.6600 1.0000 -0.0000
vt 0.4960 1.0000 -0.3473
vt 0.3325 1.0000 -0.6527
vt 0.1891 1.0000 -0.8794
vt 0.0833 1.0000 -1.0000
vt 0.0278 1.0000 -1.0000
vt 0.0292 1.0000 -0.8794
vt 0.0874 1.0000 -0.6527
vt 0.1953 1.0000 -0.3473
vt 0.3400 0.0000 -0.0000
vt 0.1953 0.0000 -0.3473
vt 0.5241 0.0000 0.0623
vt 0.0874 0.0000 -0.6527
vt 0.0292 0.0000 -0.8794
vt 0.0278 0.0000 -1.0000
vt 0.0833 0.0000 -1.0000
vt 0.1891 0.0000 -0.8794
vt 0.3325 0.0000 -0.6527
vt 0.4960 0.0000 -0.3473
vt 0.6600 0.0000 0.0000
vt 0.8047 0.0000 0.3473
vt 0.9126 0.0000 0.6527
vt 0.9708 0.0000 0.8794
# 141 texture coords

o Cylinder001
g Cylinder001
usemtl wire_090029007
s 2
f 1/1/1 2/2/2 3/3/3 4/4/4 
f 2/2/2 5/5/5 6/6/6 3/3/3 
f 5/5/5 7/7/7 8/8/8 6/6/6 
f 7/7/7 9/9/9 10/10/10 8/8/8 
f 9/11/9 11/12/11 12/13/12 10/14/10 
f 11/12/11 13/15/13 14/16/14 12/13/12 
f 13/15/13 15/17/15 16/18/16 14/16/14 
f 15/17/15 17/19/17 18/20/18 16/18/16 
f 17/19/17 19/21/19 20/22/20 18/20/18 
f 19/21/19 21/23/21 22/24/22 20/22/20 
f 21/23/21 23/25/23 24/26/24 22/24/22 
f 23/25/23 25/27/25 26/28/26 24/26/24 
f 25/27/25 27/29/27 28/30/28 26/28/26 
f 27/29/27 29/31/29 30/32/30 28/30/28 
f 29/31/29 31/33/31 32/34/32 30/32/30 
f 31/33/31 33/35/33 34/36/34 32/34/32 
f 33/35/33 35/37/35 36/38/36 34/36/34 
f 35/37/35 1/1/1 4/4/4 36/38/36 
f 4/4/4 3/3/3 37/39/3 38/40/4 
f 3/3/3 6/6/6 39/41/6 37/39/3 
f 6/6/6 8/8/8 40/42/8 39/41/6 
f 8/8/8 10/10/10 41/43/10 40/42/8 
f 10/14/10 12/13/12 42/44/12 41/45/10 
f 12/13/12 14/16/14 43/46/14 42/44/12 
f 14/16/14 16/18/16 44/47/16 43/46/14 
f 16/18/16 18/20/18 45/48/18 44/47/16 
f 18/20/18 20/22/20 46/49/20 45/48/18 
f 20/22/20 22/24/22 47/50/22 46/49/20 
f 22/24/22 24/26/24 48/51/24 47/50/22 
f 24/26/24 26/28/26 49/52/26 48/51/24 
f 26/28/26 28/30/28 50/53/28 49/52/26 
f 28/30/28 30/32/30 51/54/30 50/53/28 
f 30/32/30 32/34/32 52/55/32 51/54/30 
f 32/34/32 34/36/34 53/56/34 52/55/32 
f 34/36/34 36/38/36 54/57/36 53/56/34 
f 36/38/36 4/4/4 38/40/4 54/57/36 
f 38/40/4 37/39/3 55/58/37 56/59/38 
f 37/39/3 39/41/6 57/60/6 55/58/37 
f 39/41/6 40/42/8 58/61/8 57/60/6 
f 41/45/10 42/44/12 59/62/12 60/63/10 
f 42/44/12 43/46/14 61/64/14 59/62/12 
f 43/46/14 44/47/16 62/65/16 61/64/14 
f 44/47/16 45/48/18 63/66/18 62/65/16 
f 45/48/18 46/49/20 64/67/39 63/66/18 
f 46/49/20 47/50/22 65/68/40 64/67/39 
f 47/50/22 48/51/24 66/69/24 65/68/40 
f 48/51/24 49/52/26 67/70/26 66/69/24 
f 49/52/26 50/53/28 68/71/28 67/70/26 
f 50/53/28 51/54/30 69/72/30 68/71/28 
f 51/54/30 52/55/32 70/73/32 69/72/30 
f 52/55/32 53/56/34 71/74/34 70/73/32 
f 53/56/34 54/57/36 72/75/36 71/74/34 
f 54/57/36 38/40/4 56/59/38 72/75/36 
s 8
f 73/59/41 74/58/42 75/76/43 76/77/44 
s 2
f 55/58/37 57/60/6 77/78/45 78/76/46 
f 57/60/6 58/61/8 79/79/47 77/78/45 
f 58/61/8 60/80/10 80/81/48 79/79/47 
f 60/63/10 59/62/12 81/82/49 80/83/48 
f 59/62/12 61/64/14 82/84/50 81/82/49 
f 62/65/16 63/66/18 83/85/51 84/86/52 
f 63/66/18 64/67/39 85/87/53 83/85/51 
s 8
f 86/67/54 87/68/55 88/88/56 89/87/57 
s 2
f 65/68/40 66/69/24 90/89/58 91/88/59 
f 66/69/24 67/70/26 92/90/60 90/89/58 
f 67/70/26 68/71/28 93/91/61 92/90/60 
f 68/71/28 69/72/30 94/92/62 93/91/61 
f 69/72/30 70/73/32 95/93/63 94/92/62 
f 71/74/34 72/75/36 96/94/64 97/95/65 
f 72/75/36 56/59/38 98/77/66 96/94/64 
s 4
f 98/77/66 78/76/46 99/96/67 100/97/68 
f 78/76/46 77/78/45 101/98/69 99/96/67 
f 77/78/45 79/79/47 102/99/70 101/98/69 
f 79/79/47 80/81/48 103/100/71 102/99/70 
f 80/83/48 81/82/49 104/101/72 103/102/71 
f 81/82/49 82/84/50 105/103/73 104/101/72 
f 82/84/50 84/86/52 106/104/74 105/103/73 
f 84/86/52 83/85/51 107/105/75 106/104/74 
f 83/85/51 85/87/53 108/106/76 107/105/75 
f 85/87/53 91/88/59 109/107/77 108/106/76 
f 91/88/59 90/89/58 110/108/78 109/107/77 
f 90/89/58 92/90/60 111/109/79 110/108/78 
f 92/90/60 93/91/61 112/110/80 111/109/79 
f 93/91/61 94/92/62 113/111/81 112/110/80 
f 94/92/62 95/93/63 114/112/82 113/111/81 
f 95/93/63 97/95/65 115/113/83 114/112/82 
f 97/95/65 96/94/64 116/114/84 115/113/83 
f 96/94/64 98/77/66 100/97/68 116/114/84 
s off
f 117/68/85 118/68/86 119/67/87 120/67/88 
f 65/68/40 91/88/59 121/88/89 122/88/90 123/88/91 88/88/56 87/68/55 124/68/92 125/68/93 126/68/94 
f 127/87/95 128/87/96 122/88/90 121/88/89 
f 85/87/53 64/67/39 129/67/97 130/67/98 131/67/99 86/67/54 89/87/57 132/87/100 128/87/96 127/87/95 
f 133/58/101 134/58/102 135/59/103 136/59/104 
s 1
f 55/58/37 78/76/46 137/76/105 138/76/106 139/76/107 75/76/43 74/58/42 140/58/108 141/58/109 142/58/110 
s 8
f 143/77/111 144/77/112 138/76/106 137/76/105 
s 1
f 98/77/66 56/59/38 145/59/113 146/59/114 147/59/115 73/59/41 76/77/44 148/77/116 144/77/112 143/77/111 
s 2
f 148/77/116 76/77/44 75/76/43 139/76/107 
s off
f 149/77/117 150/77/118 151/76/119 152/76/120 
s 8
f 137/76/105 78/76/46 98/77/66 143/77/111 
s off
f 139/76/107 138/76/106 152/76/120 151/76/119 
f 138/76/106 144/77/112 149/77/117 152/76/120 
f 144/77/112 148/77/116 150/77/118 149/77/117 
f 148/77/116 139/76/107 151/76/119 150/77/118 
s 2
f 140/58/108 74/58/42 73/59/41 147/59/115 
f 141/58/109 140/58/108 147/59/115 146/59/114 
s 4
f 145/59/113 56/59/38 55/58/37 142/58/110 
s off
f 146/59/114 145/59/113 136/59/104 135/59/103 
f 145/59/113 142/58/110 133/58/101 136/59/104 
f 142/58/110 141/58/109 134/58/102 133/58/101 
f 141/58/109 146/59/114 135/59/103 134/58/102 
f 132/87/100 89/87/57 88/88/56 123/88/91 
f 153/87/121 154/87/122 155/88/123 156/88/124 
f 121/88/89 91/88/59 85/87/53 127/87/95 
f 123/88/91 122/88/90 156/88/124 155/88/123 
f 122/88/90 128/87/96 153/87/121 156/88/124 
f 128/87/96 132/87/100 154/87/122 153/87/121 
f 132/87/100 123/88/91 155/88/123 154/87/122 
f 124/68/92 87/68/55 86/67/54 131/67/99 
f 125/68/93 124/68/92 131/67/99 130/67/98 
f 129/67/97 64/67/39 65/68/40 126/68/94 
f 130/67/98 129/67/97 120/67/88 119/67/87 
f 129/67/97 126/68/94 117/68/85 120/67/88 
f 126/68/94 125/68/93 118/68/86 117/68/85 
f 125/68/93 130/67/98 119/67/87 118/68/86 
s 2
f 71/74/34 97/95/65 95/93/63 70/73/32 
f 62/65/16 84/86/52 82/84/50 61/64/14 
f 41/43/10 60/80/10 58/61/8 40/42/8 
s off
f 100/97/68 99/96/67 157/115/125 
f 99/96/67 101/98/69 157/115/125 
f 101/98/69 102/99/70 157/115/125 
f 102/99/70 103/100/71 157/115/125 
f 103/100/71 104/116/72 157/115/125 
f 104/116/72 105/117/73 157/115/125 
f 105/117/73 106/118/74 157/115/125 
f 106/118/74 107/119/75 157/115/125 
f 107/119/75 108/120/76 157/115/125 
f 108/120/76 109/121/77 157/115/125 
f 109/121/77 110/122/78 157/115/125 
f 110/122/78 111/123/79 157/115/125 
f 111/123/79 112/124/80 157/115/125 
f 112/124/80 113/125/81 157/115/125 
f 113/125/81 114/126/82 157/115/125 
f 114/126/82 115/127/83 157/115/125 
f 115/127/83 116/114/84 157/115/125 
f 116/114/84 100/97/68 157/115/125 
f 35/128/35 33/129/33 158/130/126 
f 33/129/33 31/131/31 158/130/126 
f 31/131/31 29/132/29 158/130/126 
f 29/132/29 27/133/27 158/130/126 
f 27/133/27 25/134/25 158/130/126 
f 25/134/25 23/135/23 158/130/126 
f 23/135/23 21/136/21 158/130/126 
f 21/136/21 19/137/19 158/130/126 
f 19/137/19 17/138/17 158/130/126 
f 17/138/17 15/139/15 158/130/126 
f 15/139/15 13/140/13 158/130/126 
f 13/140/13 11/141/11 158/130/126 
f 11/141/11 9/9/9 158/130/126 
f 9/9/9 7/7/7 158/130/126 
f 7/7/7 5/5/5 158/130/126 
f 5/5/5 2/2/2 158/130/126 
f 2/2/2 1/1/1 158/130/126 
f 1/1/1 35/128/35 158/130/126 
# 126 polygons - 36 triangles

